dla i=0 do len(seqB)-1:
    M[i,0]=-i
dla j=0 do len(seqA)-1:
    M[0,j]=-j
dla i=1 do len(seqB):
    dla j=1 do len(seqA):
        jeśli seqB[i]=seqA[j]:
            D=M[i-1,j-1] + match
        w przeciwnym razie:
            D=M[i-1,j-1] + missmatch
        L = A[i,j-1] + gap
        U = A[i-1,j] + gap
        A[i,j]=max(D,L,U)
        B[i,j]=max("D","L","U")
        B[0,0]=0
dopóki B[i][j] != 0:
        w=B[len(seqA)-i,len(seqB)-j]
        jeśli w="D":
            i++
            j++
            s1+=seqA[len(seqA)-i+1]
            s2+=seqB[len(seqB)-j+1]
            C[]=1
        jeśli jednak:w="U":
            i++
            s2+="-"
            s1+=seqA[len(seqA)-i+1]
            C[]=1
        jeśli jednak w="L":
            j++
            s1+="-"
            s2+=seqB[len(seqB)-j+1]
            C[]=1